…
```{r setup, include=FALSE}
knitr::opts_chunk$set(echo = TRUE)
# Script v2 extended and with year of release weighting
library(tidyverse)
library(ggdendro)
library(extrafont)
library(broom)
library(mltools)

# data
spotify_songs <- readr::read_csv('https://raw.githubusercontent.com/rfordatascience/tidytuesday/master/data/2020/2020-01-21/spotify_songs.csv')
unique(spotify_songs$playlist_genre)
## [1] "pop"   "rap"   "rock"  "latin" "r&b"   "edm"
spotify_songs
## # A tibble: 32,833 x 23
##    track_id track_name track_artist track_popularity track_album_id
##    <chr>    <chr>      <chr>                   <dbl> <chr>         
##  1 6f807x0… I Don't C… Ed Sheeran                 66 2oCs0DGTsRO98…
##  2 0r7CVbZ… Memories … Maroon 5                   67 63rPSO264uRjW…
##  3 1z1Hg7V… All the T… Zara Larsson               70 1HoSmj2eLcsrR…
##  4 75Fpbth… Call You … The Chainsm…               60 1nqYsOef1yKKu…
##  5 1e8PAfc… Someone Y… Lewis Capal…               69 7m7vv9wlQ4i0L…
##  6 7fvUMiy… Beautiful… Ed Sheeran                 67 2yiy9cd2QktrN…
##  7 2OAylPU… Never Rea… Katy Perry                 62 7INHYSeusaFly…
##  8 6b1RNvA… Post Malo… Sam Feldt                  69 6703SRPsLkS4b…
##  9 7bF6tCO… Tough Lov… Avicii                     68 7CvAfGvq4RlIw…
## 10 1IXGILk… If I Can'… Shawn Mendes               67 4QxzbfSsVryEQ…
## # … with 32,823 more rows, and 18 more variables: track_album_name <chr>,
## #   track_album_release_date <chr>, playlist_name <chr>, playlist_id <chr>,
## #   playlist_genre <chr>, playlist_subgenre <chr>, danceability <dbl>,
## #   energy <dbl>, key <dbl>, loudness <dbl>, mode <dbl>, speechiness <dbl>,
## #   acousticness <dbl>, instrumentalness <dbl>, liveness <dbl>, valence <dbl>,
## #   tempo <dbl>, duration_ms <dbl>
…
